…
that is slick. keep what you want, and nothing else.

auc and roc

```{r}
two_class_curve <- roc_curve(two_class_example, truth, Class1)
two_class_curve
#> # A tibble: 502 × 3
#>   .threshold specificity sensitivity
#>        <dbl>       <dbl>       <dbl>
#> 1 -Inf           0                 1
#> 2    1.79e-7     0                 1
#> 3    4.50e-6     0.00413           1
#> 4    5.81e-6     0.00826           1
#> 5    5.92e-6     0.0124            1
#> 6    1.22e-5     0.0165            1
#> # ℹ 496 more rows
…
